<svg xmlns="http://www.w3.org/2000/svg" viewBox="0 0 20 20">
	<path fill-rule="evenodd"
	      d="M16 9H4.414l3.293-3.293a.999.999 0 1 0-1.414-1.414l-5 5a.999.999 0 0 0 0 1.414l5 5a.997.997 0 0 0 1.414 0 .999.999 0 0 0 0-1.414L4.414 11H16a1 1 0 1 0 0-2"/>
</svg>
