<svg xmlns="http://www.w3.org/2000/svg" viewBox="0 0 11 14">
    <path fill-rule="evenodd"
          d="M7.333 5.25H3.667V3.5c0-.966.821-1.75 1.833-1.75s1.833.784 1.833 1.75v1.75zM5.5 11.375c-1.012 0-1.833-.784-1.833-1.75s.821-1.75 1.833-1.75 1.833.784 1.833 1.75-.821 1.75-1.833 1.75zM9.167 5.25V3.5C9.167 1.57 7.522 0 5.5 0S1.833 1.57 1.833 3.5v1.75C.825 5.25 0 6.038 0 7v5.25C0 13.212.825 14 1.833 14h7.334C10.175 14 11 13.212 11 12.25V7c0-.962-.825-1.75-1.833-1.75z"/>
</svg>
