<svg xmlns="http://www.w3.org/2000/svg" viewBox="0 0 11 12">
	<path fill-rule="evenodd"
	      d="M9.75 3h-9a.75.75 0 1 0 0 1.5h.75v6.75c0 .414.335.75.75.75h6a.75.75 0 0 0 .75-.75V4.5h.75a.75.75 0 1 0 0-1.5zM4.5 1.5a.75.75 0 1 1 0-1.5H6a.75.75 0 1 1 0 1.5H4.5zm1.5 9h1.5v-6H6v6zm-3 0h1.5v-6H3v6z"/>
</svg>
